simulation/BLDC_Driver_tb.vcd
$date
  Sat Jun 16 20:07:25 2018
$end
$version
  GHDL v0
$end
$timescale
  1 fs
$end
$var reg 3 ! hall_sens[2:0] $end
$var reg 3 " en[2:0] $end
$var reg 3 # dr[2:0] $end
$var reg 1 $ dir $end
$scope module s_c_0 $end
$var reg 1 % dir $end
$var reg 3 & hall_sens[2:0] $end
$var reg 3 ' en[2:0] $end
$var reg 3 ( dr[2:0] $end
$upscope $end
$enddefinitions $end
#0
b101 !
b110 "
b100 #
0$
0%
b101 &
b110 '
b100 (
#1000000000
b100 !
b101 "
b100 &
b101 '
#2000000000
b110 !
b011 "
b110 #
b110 &
b011 '
b110 (
#3000000000
b010 !
b110 "
b011 #
b010 &
b110 '
b011 (
#4000000000
b011 !
b101 "
b011 &
b101 '
#5000000000
b001 !
b011 "
b001 #
b001 &
b011 '
b001 (
#6000000000
b101 !
b110 "
b011 #
1$
1%
b101 &
b110 '
b011 (
#7000000000
b100 !
b101 "
b100 &
b101 '
#8000000000
b110 !
b011 "
b001 #
b110 &
b011 '
b001 (
#9000000000
b010 !
b110 "
b100 #
b010 &
b110 '
b100 (
#10000000000
b011 !
b101 "
b011 &
b101 '
#11000000000
b001 !
b011 "
b110 #
b001 &
b011 '
b110 (
