simulation/BLDC_Driver_tb.vcd
$date
  Sat Jun 16 21:41:02 2018
$end
$version
  GHDL v0
$end
$timescale
  1 fs
$end
$var reg 3 ! hall_sens[2:0] $end
$var reg 3 " en[2:0] $end
$var reg 3 # dr[2:0] $end
$var reg 1 $ dir $end
$scope module s_c_0 $end
$var reg 1 % dir $end
$var reg 1 & pwm $end
$var reg 1 ' dr_en $end
$var reg 1 ( brake $end
$var reg 3 ) hall_sens[2:0] $end
$var reg 3 * en[2:0] $end
$var reg 3 + dr[2:0] $end
$var reg 3 , s_dr[2:0] $end
$var reg 3 - s_en[2:0] $end
$upscope $end
$enddefinitions $end
#0
b101 !
b110 "
b100 #
0$
0%
1&
1'
0(
b101 )
b110 *
b100 +
b100 ,
b110 -
#1000000000
b100 !
b101 "
b100 )
b101 *
b101 -
#2000000000
b110 !
b011 "
b110 #
b110 )
b011 *
b110 +
b110 ,
b011 -
#3000000000
b010 !
b110 "
b011 #
b010 )
b110 *
b011 +
b011 ,
b110 -
#4000000000
b011 !
b101 "
b011 )
b101 *
b101 -
#5000000000
b001 !
b011 "
b001 #
b001 )
b011 *
b001 +
b001 ,
b011 -
#6000000000
b101 !
b110 "
b011 #
1$
1%
b101 )
b110 *
b011 +
b011 ,
b110 -
#7000000000
b100 !
b101 "
b100 )
b101 *
b101 -
#8000000000
b110 !
b011 "
b001 #
b110 )
b011 *
b001 +
b001 ,
b011 -
#9000000000
b010 !
b110 "
b100 #
b010 )
b110 *
b100 +
b100 ,
b110 -
#10000000000
b011 !
b101 "
b011 )
b101 *
b101 -
#11000000000
b001 !
b011 "
b110 #
b001 )
b011 *
b110 +
b110 ,
b011 -
